{
  "name": "home",
  "type": "page",
  "url": "/home",
  "params": {},
  "variables": [],
  "children": [
    {
      "name": "test-comp",
      "nodeName": "test-comp",
      "elementId": "",
      "attributes": [
        {
          "property": "data-id",
          "value": "XYskHm"
        }
      ],
      "classList": [],
      "conditionalClasses": [],
      "contentType": "text",
      "displayExpression": "",
      "events": {},
      "iterate": {
        "array": "",
        "variable": "",
        "trackByIndex": false
      },
      "styles": [],
      "children": [],
      "comments": "",
      "type": "custom-component",
      "id": "66727e71d65a20b66b2b7db1",
      "expressions": []
    }
  ]
}